{
    "meta": {
        "totalResults": 54,
        "totalPages": 11,
        "pageSize": 5,
        "pageNo": 1
    },
    "links": {
        "self": "https://app-testing.ordermentum.com/v1/retailers?directorySearch=Agave&pageSize=5&pageNo=1&verified=true",
        "first": "https://app-testing.ordermentum.com/v1/retailers?directorySearch=Agave&pageSize=5&pageNo=1&verified=true",
        "prev": null,
        "next": "https://app-testing.ordermentum.com/v1/retailers?directorySearch=Agave&pageSize=5&pageNo=2&verified=true",
        "last": "https://app-testing.ordermentum.com/v1/retailers?directorySearch=Agave&pageSize=5&pageNo=11&verified=true"
    },
    "data": [
        {
            "id": "5cc8f78c-9696-4d64-aa29-5c592524915f",
            "legalName": "Agave Mexican Cantino",
            "tradingName": "Agave Mexican Cantina",
            "address": {
                "id": "6c4752bc-02a8-4ee9-891c-2c177ae40617",
                "name": "",
                "number": "",
                "street1": "494 Rose Ave.",
                "street2": "Apartment #8",
                "suburb": "Pleasanton",
                "state": "NSW",
                "postcode": "2000",
                "country": "",
                "latitude": null,
                "longitude": null,
                "createdAt": "2018-12-04T22:45:18.659Z",
                "updatedAt": "2019-04-02T01:46:34.507Z",
                "description": "Go Right Then Left",
                "type": "delivery"
            }
        },
        {
            "id": "6fe6102e-fe89-4807-9316-88bb48db7228",
            "legalName": "Donna Hay  - News Magazines P/L",
            "tradingName": "Donna Hay  - News Magazines P/L",
            "address": {
                "id": "6fe6102e-fe89-4807-9316-88bb48db7228",
                "name": "",
                "number": "",
                "street1": "Level 5, 83-97 Kippax St",
                "street2": "",
                "suburb": "Surry Hills",
                "state": "NSW",
                "postcode": "",
                "country": "Australia",
                "latitude": null,
                "longitude": null,
                "createdAt": "2016-09-25T21:32:16.000Z",
                "updatedAt": "2016-09-27T06:28:54.000Z",
                "description": "",
                "type": "delivery"
            }
        },
        {
            "id": "f892e936-58df-484b-8a07-343e34809a6e",
            "legalName": "Ramblin Rascal Tavern",
            "tradingName": "Ramblin Rascal Tavern",
            "address": {
                "id": "e628a36c-5fc0-4ccb-a9f4-9b3bb9ed8130",
                "name": "",
                "number": "",
                "street1": "60 Park Street",
                "street2": "Basement",
                "suburb": "Sydney",
                "state": "NSW",
                "postcode": "2000",
                "country": "Australia",
                "latitude": null,
                "longitude": null,
                "createdAt": "2019-01-30T23:56:17.085Z",
                "updatedAt": "2019-01-31T07:04:05.550Z",
                "description": "",
                "type": "delivery"
            }
        },
        {
            "id": "f0208179-3ba2-4c68-9155-b4721b154a99",
            "legalName": "The Avenue Bar & Restaurant",
            "tradingName": "The Avenue Bar & Restaurant",
            "address": {
                "id": "f0208179-3ba2-4c68-9155-b4721b154a99",
                "name": "",
                "number": "",
                "street1": "465 Victoria Avenue (Cnr Brown St & Railway St)",
                "street2": "",
                "suburb": "Chatswood",
                "state": "NSW",
                "postcode": "",
                "country": "Australia",
                "latitude": null,
                "longitude": null,
                "createdAt": "2016-09-26T01:39:39.000Z",
                "updatedAt": "2016-09-27T06:53:37.000Z",
                "description": "",
                "type": "delivery"
            }
        },
        {
            "id": "7a54f25e-cf2b-4a69-ade2-0c8c70aee2f2",
            "legalName": "Haven Tailoring Coffee Joyously",
            "tradingName": "Haven Tailoring Coffee Joyously",
            "address": {
                "id": "7a54f25e-cf2b-4a69-ade2-0c8c70aee2f2",
                "name": "",
                "number": "",
                "street1": "G01, 30-34 Chalmers St",
                "street2": "",
                "suburb": "Surry Hills",
                "state": "NSW",
                "postcode": "",
                "country": "Australia",
                "latitude": null,
                "longitude": null,
                "createdAt": "2016-09-25T22:47:39.000Z",
                "updatedAt": "2016-11-01T00:32:46.000Z",
                "description": "",
                "type": "delivery"
            }
        }
    ]
}
